Malaria Risk Map - Thailand | Duncan Mahood
…
Methods

For this analysis I performed a Kernel Density Relative Risk Map of reversion intensity.

Spatial Analysis: Kernel Density Relative Risk Map

Because reversion is a point process, we want to assess the spatial intensity of points. This motivates the use of Kernal Density Estimation with spatial points. The goal is to produce a map showing the density of foci that reverted during the study period, conditional on the density of all foci that were not active at baseline.

## Simple feature collection with 77 features and 6 fields
## geometry type:  MULTIPOLYGON
## dimension:      XY
## bbox:           xmin: 97.34632 ymin: 5.610785 xmax: 105.6409 ymax: 20.46396
## epsg (SRID):    4240
## proj4string:    +proj=longlat +a=6377276.345 +b=6356075.41314024 +towgs84=210,814,289,0,0,0,0 +no_defs
## # A tibble: 77 x 7
##    ISO   PROV_NAMT Adm1Name Adm1Code Adm0Name Admin0Code
##    <chr> <chr>     <chr>    <chr>    <chr>    <chr>     
##  1 TH    เชียงใหม่   Chiang … TH50     Thailand TH        
##  2 TH    เชียงราย   Chiang … TH57     Thailand TH        
##  3 TH    เพชรบุรี    Phetcha… TH76     Thailand TH        
##  4 TH    เพชรบูรณ์   Phetcha… TH67     Thailand TH        
##  5 TH    เลย       Loei     TH42     Thailand TH        
##  6 TH    แพร่       Phrae    TH54     Thailand TH        
##  7 TH    แม่ฮ่องสอน  Mae Hon… TH58     Thailand TH        
##  8 TH    กระบี่      Krabi    TH81     Thailand TH        
##  9 TH    กรุงเทพม…  Bangkok  TH10     Thailand TH        
## 10 TH    กาญจนบุรี   Kanchan… TH25     Thailand TH        
## # ... with 67 more rows, and 1 more variable: geometry <MULTIPOLYGON [°]>
…
